…
a1 <- as.numeric(nrow(excel11))
fecha_ = "11-2018"
FECHA <- rep(fecha_, a1)
excel11 <- add_column(excel11, FECHA, .before = 1)

Data_final <- rbind(excel01[,c(1,2,3,4,5,6,7,8,9)],excel02[,c(1,2,3,4,5,6,7,8,9)]
                    ,excel03[,c(1,2,3,4,5,6,7,8,9)],excel04[,c(1,2,3,4,5,6,7,8,9)]
                    ,excel05[,c(1,2,3,4,5,6,7,8,9)],excel06[,c(1,2,3,4,5,6,7,8,9)]
                    ,excel07[,c(1,2,3,4,5,6,7,8,9)],excel08[,c(1,2,3,4,5,6,7,8,9)]
                    ,excel09[,c(1,2,3,4,5,6,7,8,9)],excel10[,c(1,2,3,4,5,6,7,8,9)],
                    excel11[,c(1,2,3,4,5,6,7,8,9)])
Data_final
```

    ## # A tibble: 2,180 × 9
    ##    FECHA   COD_VIAJE CLIENTE         UBICA…¹ CANTI…² PILOTO     Q CREDITO UNIDAD
    ##    <chr>       <dbl> <chr>             <dbl>   <dbl> <chr>  <dbl>   <dbl> <chr> 
    ##  1 01-2018  10000001 EL PINCHE OBEL…   76002    1200 Ferna… 300        30 Camio…
    ##  2 01-2018  10000002 TAQUERIA EL CH…   76002    1433 Hecto… 358.       90 Camio…
    ##  3 01-2018  10000003 TIENDA LA BEND…   76002    1857 Pedro… 464.       60 Camio…
    ##  4 01-2018  10000004 TAQUERIA EL CH…   76002     339 Angel…  84.8      30 Panel 
    ##  5 01-2018  10000005 CHICHARRONERIA…   76001    1644 Juan … 411        30 Camio…
    ##  6 01-2018  10000006 UBIQUO LABS ||…   76001    1827 Luis … 457.       30 Camio…
    ##  7 01-2018  10000007 CHICHARRONERIA…   76002    1947 Ismae… 487.       90 Camio…
    ##  8 01-2018  10000008 TAQUERIA EL CH…   76001    1716 Juan … 429        60 Camio…
    ##  9 01-2018  10000009 EL GALLO NEGRO…   76002    1601 Ismae… 400.       30 Camio…
    ## 10 01-2018  10000010 CHICHARRONERIA…   76002    1343 Ferna… 336.       90 Camio…
    ## # … with 2,170 more rows, and abbreviated variable names ¹​UBICACION, ²​CANTIDAD
    ## # ℹ Use `print(n = ...)` to see more rows
…
    ## Rows: 2435294 Columns: 11
    ## ── Column specification ────────────────────────────────────────────────────────
    ## Delimiter: "|"
    ## chr (8): MES, NOMBRE_DEPARTAMENTO, NOMBRE_MUNICIPIO, MODELO_VEHICULO, LINEA_...
    ## dbl (2): ANIO_ALZA, CANTIDAD
    ## lgl (1): ...11
    ## 
    ## ℹ Use `spec()` to retrieve the full column specification for this data.
    ## ℹ Specify the column types or set `show_col_types = FALSE` to quiet this message.

``` r
txt_1
```

    ## # A tibble: 2,435,294 × 11
    ##    ANIO_…¹ MES   NOMBR…² NOMBR…³ MODEL…⁴ LINEA…⁵ TIPO_…⁶ USO_V…⁷ MARCA…⁸ CANTI…⁹
    ##      <dbl> <chr> <chr>   <chr>   <chr>   <chr>   <chr>   <chr>   <chr>     <dbl>
    ##  1    2007 05    HUEHUE… "HUEHU… 2007    SPORT1… MOTO    MOTOCI… ASIA H…       1
    ##  2    2007 05    EL PRO… "EL JI… 2007    BT-50 … PICK UP PARTIC… MAZDA         1
    ##  3    2007 05    SAN MA… "OCOS"  2007    JL125   MOTO    MOTOCI… KINLON        1
    ##  4    2007 05    ESCUIN… "SAN J… 2006    JL125T… MOTO    MOTOCI… JIALING       1
    ##  5    2007 05    JUTIAPA "MOYUT… 2007    JH100-2 MOTO    MOTOCI… JIALING       1
    ##  6    2007 05    GUATEM… "FRAIJ… 1997    TACOMA… PICK UP PARTIC… TOYOTA        1
    ##  7    2007 05    QUETZA… "QUETZ… 2007    ALTO L… AUTOMO… PARTIC… SUZUKI        1
    ##  8    2007 05    SUCHIT… "CHICA… 2007    AUTORI… MOTO    MOTOCI… BAJAJ         4
    ##  9    2007 05    ESCUIN… "ESCUI… 2007    SC 125… MOTO    MOTOCI… HONDA        11
    ## 10    2007 05    GUATEM… "MIXCO" 2007    GN125H  MOTO    MOTOCI… SUZUKI       15
    ## # … with 2,435,284 more rows, 1 more variable: ...11 <lgl>, and abbreviated
    ## #   variable names ¹​ANIO_ALZA, ²​NOMBRE_DEPARTAMENTO, ³​NOMBRE_MUNICIPIO,
    ## #   ⁴​MODELO_VEHICULO, ⁵​LINEA_VEHICULO, ⁶​TIPO_VEHICULO, ⁷​USO_VEHICULO,
    ## #   ⁸​MARCA_VEHICULO, ⁹​CANTIDAD
    ## # ℹ Use `print(n = ...)` to see more rows, and `colnames()` to see all variable names
